#28/9

mkdir xuletes
cd xuletes/
git init
touch intro.md
ls -l
cat intro.md 

geany 
geany intro.md &
ls -la
ls -la .git/
cat intro.md 
git config --global user.email "you@example.com"
git config --global user.name "alberto"
cat .git/config 
cat /home/beto/.gitconfig 
ls ~
ls ~/.gitconfig 
ls -la ~ 
cat intro.md 
git add intro.md 
git commit 
git commit -am "primer commit hecho"
geany intro.md 
git commit -am "segundo commit hecho"
git log
git log -p intro.md
git log
git reset 2680188af
geany intro.md 
git reset --hard 2680188af
git reset 65911db2
geany intro.md 
git reset --hard 65911db2
geany intro.md 
git log
geany intro.md 
cd ..
cd
cd 
rm -rf xuletes/
mkdir parchis
cd parchis
git init
echo "pepe pepa" > verde.txt
cat verde.txt 
git add verde.txt 
git commit -am "v1 solo verde"
echo "luis luisa" > rojo.txt
echo "carlos carla" > verdetxt
rm -fverdetxt 
rm -f verdetxt 
echo "carlos carla" > verde.txt
cat verde.txt 
cat rojo.txt 
git add rojo.txt 
git commit -am "v2 hay rojo"
git log
git log -p verde.txt
cat verde.txt 
git log
git reset --hard 2dd10fc
git log
cat verde.txt 
ls
git log -v
git log -a

# 29/9
cat .ssh/id_rsa
ssh-keygen 
git clone git@gitlab.com:beto/netswithlinux.git


cd netswithlinux/

git checkout -b  00_profe
git branch
mkdir exercises
cd exercises
touch 20160929ex1
echo "mi primer ejercicio de Alberto Larraz" > 20160929ex1 
cat 20160929ex1 
git add .
git status
cd ..
git status
git commit -am "primer commit con primer ejercicio"
git remote 
git push -u origin 00_profe 
git pull
git branch -a
git checkout origin/02_Marc
ls exercises
 


